Unit 5: Maximum Likelihood Estimation | EPsy 8252 Notes
…
crossing(
  mu = seq(from = 10, to = 30, by = 0.1),
  sigma = seq(from = 0, to = 10, by = 0.1)
  ) %>%
  rowwise() %>%
  mutate(
    L = prod(dnorm(c(30, 20, 24, 27), mean = mu, sd = sigma))
    ) %>%
  arrange(desc(L))

Source: local data frame [20,301 x 3]
Groups: <by row>

# A tibble: 20,301 x 3
      mu sigma         L
   <dbl> <dbl>     <dbl>
 1  25.2   3.7 0.0000183
 2  25.3   3.7 0.0000183
 3  25.3   3.8 0.0000182
 4  25.2   3.8 0.0000182
 5  25.4   3.7 0.0000182
 6  25.1   3.7 0.0000182
 7  25.2   3.6 0.0000182
 8  25.3   3.6 0.0000182
 9  25.1   3.8 0.0000182
10  25.4   3.8 0.0000182
# … with 20,291 more rows
…
crossing(
  mu = seq(from = 10, to =30, by = 0.1),
  sigma = seq(from = 0, to = 10, by = 0.1)
  ) %>%
  rowwise() %>%
  mutate(
    log_L = sum(dnorm(c(30, 20, 24, 27), mean = mu, sd = sigma, log = TRUE))
    ) %>%
  arrange(desc(log_L))

Source: local data frame [20,301 x 3]
Groups: <by row>

# A tibble: 20,301 x 3
      mu sigma log_L
   <dbl> <dbl> <dbl>
 1  25.2   3.7 -10.9
 2  25.3   3.7 -10.9
 3  25.3   3.8 -10.9
 4  25.2   3.8 -10.9
 5  25.1   3.7 -10.9
 6  25.4   3.7 -10.9
 7  25.3   3.6 -10.9
 8  25.2   3.6 -10.9
 9  25.1   3.8 -10.9
10  25.4   3.8 -10.9
# … with 20,291 more rows
…
crossing(
  b0 = seq(from = 30, to = 50, by = 0.1),
  b1 = seq(from = -5, to = 5, by = 0.1)
) %>%
  rowwise() %>%
  mutate(
    log_L = log_likelihood(b0 = b0, b1 = b1)
    ) %>%
  arrange(desc(log_L))

Source: local data frame [20,301 x 3]
Groups: <by row>

# A tibble: 20,301 x 3
      b0    b1 log_L
   <dbl> <dbl> <dbl>
 1  40.1   2.7 -39.5
 2  40     2.7 -39.5
 3  40.2   2.7 -39.5
 4  39.9   2.8 -39.5
 5  39.8   2.8 -39.5
 6  40     2.8 -39.5
 7  39.9   2.7 -39.5
 8  39.7   2.8 -39.5
 9  40.3   2.7 -39.5
10  40.1   2.8 -39.5
# … with 20,291 more rows
…
